Student No.,Courses Completed,Career Plans
1," Geography , Mathematics, Physical Science", Geoinformation Technoligist
2,Mathematics,Mathematician
3, Political science,Politician
4,A Master of Computer Science or related degree on NQF Level 9.,Software Engineeer
5,A Master of Computer Science or related degree on NQF Level 9.,Software Engineeer
6,A Master of Computer Science or related degree on NQF Level 9.,Software Engineeer
7,A Master of Computer Science or related degree on NQF Level 9.,Software Engineeer
8," Geography , Mathematics, Physical Science",Geoinformation Technoligist
9," Geography , Mathematics, Physical Science",Geoinformation Technoligist
10," Geography , Mathematics, Physical Science",Meterologist
11,A Bachelor Honours degree in Environmental Health Science or Biomedical Science or Emergency Medical Care ,Environmental Health Practioner
12,A Bachelor of Land Administration,Land surveyer
13,A Bachelor of Land Administration,Land surveyer
14,A Bachelor of Land Administration,Land surveyer
15,A Bachelor of Land Administration,Land manager
16,A Bachelor of Economics,Economist
17,Bachelor of Natural Resources Management Honours or an equivalent qualification at NQF Level 8.,conserver
18,Bachelor of Natural Resources Management Honours or an equivalent qualification at NQF Level 8.,conserver
19,Bachelor of Natural Resources Management Honours or an equivalent qualification at NQF Level 8.,conserver
20,A Bachelor of Science in Applied Mathematics and Statistics , Statistician
21,A Bachelor of Science in Applied Mathematics and Statistics ,Mathematician
22,E symbol in Mathematics and Biology ,Mathematician
23,E symbol in Mathematics and Biology ,Biologist
24,E symbol in Mathematics and Biology ,Biologist
25,E symbol in Mathematics and Biology ,Biologist
26,A Bachelor of Emergency Medical Care ,Paramedic
27,"20 points for Biology, Mathematics, Physics and Chemistry. No symbol should be lower than a C on Ordinary Level or a D on AS Level.",Mathematician
28,"21 points for Biology, Mathematics, Physics and Chemistry. No symbol should be lower than a C on Ordinary Level or a D on AS Level.",Mathematician
29,"22 points for Biology, Mathematics, Physics and Chemistry. No symbol should be lower than a C on Ordinary Level or a D on AS Level.",Mathematician
30,30 points in five subjects including A symbol in Mathematics on NSSCO and B symbol in Physical Science or Physics and Grade 3 or d symbol on NSSCAS.,Chemist
31,31 points in five subjects including A symbol in Mathematics on NSSCO and B symbol in Physical Science or Physics and Grade 3 or d symbol on NSSCAS.,Chemist
32,A Bachelor Honours degree in Environmental Health Science or Biomedical Science or Emergency Medical Care ,Environmental Health Practioner
33, English and Mathematics,Teacher
34,"20 points for Biology, Mathematics, Physics and Chemistry. No symbol should be lower than a C on Ordinary Level or a D on AS Level.",Biologist
35,Bachelor of Natural Resources Management Honours or an equivalent qualification at NQF Level 8.,conserver
36,A Bachelor of English and Linguistics,linguist
37,A Bachelor of English and Linguistics,linguist
38,A Bachelor of English and Linguistics,linguist
39,A Bachelor of English and Linguistics,linguist
40, English and Mathematics ,Mathematician
41, English and Mathematics ,Mathematician
42, English and Mathematics ,Mathematician
43, English and Mathematics ,Mathematician
44,"20 points for Biology, Mathematics, Physics and Chemistry. No symbol should be lower than a C on Ordinary Level or a D on AS Level.",Chemist
45,"21 points for Biology, Mathematics, Physics and Chemistry. No symbol should be lower than a C on Ordinary Level or a D on AS Level.",Chemist
46,"22 points for Biology, Mathematics, Physics and Chemistry. No symbol should be lower than a C on Ordinary Level or a D on AS Level.",Chemist
47,"20 points for Biology, Mathematics, Physics and Chemistry. No symbol should be lower than a C on Ordinary Level or a D on AS Level.",Chemist
48,"21 points for Biology, Mathematics, Physics and Chemistry. No symbol should be lower than a C on Ordinary Level or a D on AS Level.",Biologist
49,A Bachelor of English and Linguistics,linguist
50,A Bachelor of Agricultural Management Honours or an equivalent qualification at NQF Level 8.,Agricuturist
51,A Bachelor of Agricultural Management Honours or an equivalent qualification at NQF Level 8.,Agricuturist
52,A Bachelor of Agricultural Management Honours or an equivalent qualification at NQF Level 8.,Agricuturist
53,A Bachelor of Agricultural Management Honours or an equivalent qualification at NQF Level 8.,Agricuturist
54,A Bachelor of Hospitality or Tourism Management,Hotel Manager
55,A Bachelor of Hospitality or Tourism Management,Hotel Manager
56,A Bachelor of Hospitality or Tourism Management,Hotel Manager
57,A Bachelor of Hospitality or Tourism Management,Chef
58,A Bachelor of Hospitality or Tourism Management,Chef
59," Mathematics, Physical Science ",Mathematician
60," Mathematics, Physical Science ",Mathematician
61," Mathematics, Physical Science ",Chemist
62," Mathematics, Physical Science ",Chemist
63,D symbol in Mathematics or Accounting,Accountant
64,D symbol in Mathematics or Accounting,Accountant
65,D symbol in Mathematics or Accounting,Accountant
66,D symbol in Mathematics or Accounting,Financial advisor
67,D symbol in Mathematics or Accounting,Financial advisor
68,A Bachelor of Human Resources Management  ,Human resource manager
69,A Bachelor of Human Resources Management  ,Human resource manager
70,A Bachelor of Human Resources Management  ,Human resource manager
71,A Bachelor of Human Resources Management  ,Human resource manager
72,A Bachelor of Human Resources Management  ,Human resource manager
73,A Master of Health Science or an equivalent qualification at NQF Level 9.,Health programme officer
74,A Master of Health Science or an equivalent qualification at NQF Level 9.,Health programme officer
75,A Master of Health Science or an equivalent qualification at NQF Level 9.,Health data analyst
76,A Master of Health Science or an equivalent qualification at NQF Level 9.,Health data analyst
77,A Bachelor of Journalism and Media Technology at NQF Lvel 8, Journalist
78,A Bachelor of Journalism and Media Technology at NQF Lvel 9,Reporter
79,A Bachelor of Journalism and Media Technology at NQF Lvel 10,Reporter
80,A Bachelor of Journalism and Media Technology at NQF Lvel 11,Reporter
81,A Bachelor of Journalism and Media Technology at NQF Lvel 12,Reporter
82,A Bachelor of Journalism and Media Technology at NQF Lvel 13,Reporter
83,A Bachelor of Journalism and Media Technology at NQF Lvel 14, Journalist
84,A Bachelor of Journalism and Media Technology at NQF Lvel 15, Journalist
85,A Bachelor of Science Honours in Statistics or an equivalent qualification at NQF Level 8.,Statistician
86,A Bachelor of Science Honours in Statistics or an equivalent qualification at NQF Level 8.,Statistician
87,A Bachelor of Science Honours in Statistics or an equivalent qualification at NQF Level 8.,Statistician
88,A Bachelor of Science Honours in Statistics or an equivalent qualification at NQF Level 8.,Statistician
89,A Bachelor of Science Honours in Statistics or an equivalent qualification at NQF Level 8.,Statistician
90,A Bachelor of Science Honours in Statistics or an equivalent qualification at NQF Level 8.,Mathematician
91,A Bachelor of Science Honours in Statistics or an equivalent qualification at NQF Level 8.,Mathematician
92,A Bachelor degree in Marketing or an equivalent qualification at NQF Level 7,Mathematician
93,A Bachelor degree in Marketing or an equivalent qualification at NQF Level 8,Marketing Manager
94,A Bachelor degree in Marketing or an equivalent qualification at NQF Level 9,Marketing Manager
95,A Bachelor of Architecture Honours or an equivalent qualification at NQF Level 8.,Architecure
96,A Bachelor of Architecture Honours or an equivalent qualification at NQF Level 8.,Architecure
97,A Bachelor of Architecture Honours or an equivalent qualification at NQF Level 8.,Architecure
98,A Bachelor of Architecture Honours or an equivalent qualification at NQF Level 8.,Architecure
99,A Bachelor of Architecture Honours or an equivalent qualification at NQF Level 8.,Architecure
100,A Bachelor degree in Marketing or an equivalent qualification at NQF Level 7,Marketing Manager
